Project 1
…
To clean up the table a bit and remove unnecessary variables, I dropped the variables code, rt_url, period.code, decade.code, dvd_rel_(year/month/day), thtr_rel_month/day for irrelevance. I dropped test because I am using clean_test for a more detailed/clear bechdel test result. We’re also dropping budget, domgross, intgross in exchange for the inflation adjusted "_13" versions, which we will rename to the former. When joining we had two variables named title, which became title.x and title.y, so I dropped .x and renamed it to just title.

bech1<-bechdat2%>%pivot_longer(cols = c('actor1':'actor5'), names_to = 'role', values_to = 'actors')%>%
  select(-role)
bech1<-bech1%>% group_by(imdb)%>%
  mutate(lead_actors = paste(actors, collapse = ", "))%>%
  select(-actors)%>%
  distinct(lead_actors, .keep_all= TRUE)%>%
  ungroup()
bech1%>%select(imdb, title, lead_actors)

## # A tibble: 129 x 3
##    imdb     title               lead_actors                                     
##    <chr>    <chr>               <chr>                                           
##  1 tt15351… Captain Phillips    Tom Hanks, Catherine Keener, Barkhad Abdi, Mich…
##  2 tt16505… Kick-Ass 2          Aaron Taylor-Johnson, Christopher Mintz-Plasse,…
##  3 tt18545… Percy Jackson: Sea… Logan Lerman, Brandon T. Jackson, Alexandra Dad…
##  4 tt20053… The Frozen Ground   Nicolas Cage, John Cusack, Vanessa Hudgens, Dea…
##  5 tt12454… This Is the End     James Franco, Jonah Hill, Danny McBride, Craig …
##  6 tt23348… White House Down    Channing Tatum, Jamie Foxx, Maggie Gyllenhaal, …
##  7 tt13711… Cloud Atlas         Tom Hanks, Halle Berry, Jim Broadbent, Hugo Wea…
##  8 tt18537… Django Unchained    Jamie Foxx, Christoph Waltz, Leonardo DiCaprio,…
##  9 tt21014… Spring Breakers     Selena Gomez, James Franco, Ashley Benson, Rach…
## 10 tt13921… The Hunger Games    Jennifer Lawrence, Josh Hutcherson, Liam Hemswo…
## # … with 119 more rows
…
bech1%>%select(studio)%>%glimpse()

## Rows: 129
## Columns: 1
## $ studio <chr> "Sony Pictures", "Universal Pictures", "20th Century Fox", "Th…

Fixed as many of the repeat studios as I could using gsub.

#drop N/A, make ROI var
bech1<- bech1 %>% mutate_at(c("domgross", "intgross"), function(x)as.numeric(as.character(x))) %>%
  filter(intgross != "#N/A") %>% na.omit %>%mutate(ROI= (intgross/budget))
bech1

## # A tibble: 127 x 29
##     year imdb  clean_test binary budget domgross intgross title title_type genre
##    <int> <chr> <fct>      <fct>   <int>    <dbl>    <dbl> <chr> <fct>      <fct>
##  1  2013 tt15… notalk     FAIL   5.50e7   1.07e8   2.19e8 Capt… Feature F… Drama
##  2  2013 tt16… ok         PASS   2.80e7   2.88e7   6.08e7 Kick… Feature F… Acti…
##  3  2013 tt18… ok         PASS   9.00e7   6.86e7   2.01e8 Perc… Feature F… Drama
##  4  2013 tt12… notalk     FAIL   3.20e7   1.01e8   1.26e8 This… Feature F… Drama
##  5  2013 tt23… men        FAIL   1.50e8   7.31e7   2.05e8 Whit… Feature F… Drama
##  6  2012 tt13… ok         PASS   1.03e8   2.75e7   1.28e8 Clou… Feature F… Drama
##  7  2012 tt18… notalk     FAIL   1.01e8   1.65e8   4.32e8 Djan… Feature F… Other
##  8  2012 tt21… ok         PASS   5.07e6   1.43e7   3.11e7 Spri… Feature F… Drama
##  9  2012 tt13… ok         PASS   8.12e7   4.14e8   6.95e8 The … Feature F… Drama
## 10  2011 tt17… nowomen    FAIL   5.18e6   1.83e7   2.75e7 Apol… Feature F… Scie…
## # … with 117 more rows, and 19 more variables: runtime <dbl>,
## #   mpaa_rating <fct>, studio <chr>, thtr_rel_year <dbl>, imdb_rating <dbl>,
## #   imdb_num_votes <int>, critics_rating <fct>, critics_score <dbl>,
## #   audience_rating <fct>, audience_score <dbl>, best_pic_nom <fct>,
## #   best_pic_win <fct>, best_actor_win <fct>, best_actress_win <fct>,
## #   best_dir_win <fct>, top200_box <fct>, director <chr>, lead_actors <chr>,
## #   ROI <dbl>
…
